c,var
0,0.3131543
1,0.60003304
2,0.802196
3,0.9989431
4,0.99931115
5,0.9995677
6,0.99978507
7,0.9998943
8,0.9999375
9,0.99995977
10,0.999972
11,0.9999824
12,0.99998987
13,0.9999946
14,0.9999982
15,1.0000001
