{
  "architecture": {
    "latent_width": 4,
    "depth": 16,
    "latent": 1,
    "colors": 1,
    "activation_approximation": null,
    "include_decoder": false,
    "reduced_size": null
  },
  "train": {
    "epochs": 10000,
    "lr": 1e-4,
    "batch_size": 128,
    "weight_decay": 1e-5,
    "weight_encoder_reg": 1,
    "weight_decoder_reg": 0,
    "flatness_weight": 1,
    "weight_constraints": null,
    "sampling_params": {
      "eps_rel": 0.25,
      "eps_min_rel": 0.01
    },
    "num_components": [
      4,
      5
    ],
    "seed": 42,
    "reference_loss": null,
    "dataset_size": 10000,
    "early_stopping": {
      "quantity": "train_reg_loss",
      "patience": 20,
      "min_delta": 0.00
    },
    "sampling_strategy": "dataset:CylinderConditionalDataset"
  },
  "data": {
    "manifold": "cylinder",
    "manifold_args": {
      "interval_radii": [
        1,
        1
      ]
    },
    "renderer": "cylinder_ellipse",
    "renderer_args": {
      "im_width": 64,
      "scale": 0.7,
      "k": 0,
      "aspect": 3,
      "cylinder_extent": 1
    }
  },
  "test": {
    "data": "cylinder_max_30000.pickle",
    "dataset_size": 5000
  }
}