{
    "architecture": {
        "latent_width": 4,
        "depth": 16,
        "latent": 1,
        "colors": 3,
        "activation_approximation": null,
        "include_decoder": false,
        "reduced_size": null,
        "width": 128
    },
    "train": {
        "epochs": 5000,
        "lr": 0.001,
        "batch_size": 128,
        "weight_decay": 1e-05,
        "weight_decoder_reg": 0,
        "weight_constraints": null,
        "seed": 42,
        "reference_loss": 0.002,
        "dataset_size": 10000,
        "load_file_encoder": "state_dict_encoder_early_stop_best.pth",
        "load_dir_encoder": "special_orthogonal/cow_3d/encoder/e0.25_f10_tangential"
    },
    "data": {
        "manifold": "special_orthogonal",
        "manifold_args": {
            "metric_scale": 0.5
        },
        "renderer": "cow_3d",
        "renderer_args": {
            "im_width": 128
        }
    },
    "test": {
        "data": "rotations_max_30000.pickle",
        "dataset_size": 5000,
        "batch_size": 128
    }
}