{
  "train": {
    "epochs": 5000,
    "lr": 1e-3,
    "batch_size": 128,
    "weight_decay": 1e-5,
    "weight_decoder_reg": 0,
    "weight_constraints": null,
    "seed": 42,
    "reference_loss": 0.002,
    "dataset_size": 10000,
    "load_file_encoder": "state_dict_encoder_early_stop_best.pth",
    "load_dir_encoder": "special_orthogonal/cow_3d/encoder/e0.25_f0_tangential"
  }
}