c,var
0,0.27223656
1,0.5149236
2,0.6827419
3,0.806401
4,0.8968935
5,0.9292114
6,0.95219964
7,0.97057605
8,0.9806859
9,0.9897042
10,0.99422634
11,0.9974403
12,0.99917746
13,0.99959695
14,0.99986416
15,1.0000001
