c,var
0,0.17227411
1,0.15357487
2,0.10619714
3,0.07825277
4,0.057264604
5,0.020451095
6,0.014547206
7,0.011628787
8,0.006397616
9,0.0057068644
10,0.0028616532
11,0.0020338087
12,0.0010993069
13,0.0002654762
14,0.00016908832
15,8.601634e-05
